Chapter 4 Geographic Data | Spatial Analysis with R
…
If we want to export the geographic data in those formats, just simply change the file extension in the directory. Take “ScenicSpot” we produce again, and generate the spatial data in GeoPackage format.

# relative path
write_sf(ScenicSpot, "./ScenicSpot.gpkg")

# import the data and check if it is successfully generated
read_sf("./ScenicSpot.gpkg")

## Simple feature collection with 94 features and 4 fields
## Geometry type: POINT
## Dimension:     XY
## Bounding box:  xmin: 239280.7 ymin: 2737355 xmax: 251527.1 ymax: 2749333
## Projected CRS: TWD97 / TM2 zone 121
## # A tibble: 94 x 5
##    ID                   Name   PositionLat PositionLon               geom
##    <chr>                <chr>        <dbl>       <dbl>        <POINT [m]>
##  1 C1_376580000A_000101 新竹~         24.8        121.   (247688 2743764)
##  2 C1_376580000A_000029 進士第        24.8        121. (246495.3 2744675)
##  3 C1_376580000A_000037 楊氏~         24.8        121. (246417.3 2743970)
##  4 C1_376580000A_000045 香山~         24.8        121. (241294.3 2739544)
##  5 C1_376580000A_000085 于飛~         24.8        121. (247149.1 2740851)
##  6 C1_376580000A_000079 十草~         24.8        121. (243716.3 2740007)
##  7 C1_376580000A_000007 新竹~         24.8        121. (246528.1 2744113)
##  8 C1_376580000A_000042 鄭用~         24.8        121. (247062.5 2742288)
##  9 C1_376580000A_000027 消防~         24.8        121. (246781.4 2744342)
## 10 C1_376580000A_000044 新竹~         24.8        121. (245226.6 2742840)
## # ... with 84 more rows
…
Now, let’s join the data provided in package spData. “world” is simple feature data that stores the geometry of the shape of each country. “coffee_data” is a data frame which records the production of coffee in every nations each year. We want to join two data together, and perform the map about the world coffee production by country. Use function left_join() to accomplish our goal. In left_join(), the first data placed would be on the left-hand side of the new data frame; while the latter one would be on the right-hand side. Parameter by="" should be given if the column is specifically to be joined, or the function would join the data based on all the columns that have common name by default. In this example, the primary key is the country name. The column name in both data are the same, which is named “name_long.” The code and result are shown below.

# join the spatial and attribute features
world_coffee=left_join(world, coffee_data, by="name_long")

# print the result
world_coffee[,c("name_long","continent","coffee_production_2016","coffee_production_2017")]

## Simple feature collection with 177 features and 4 fields
## Geometry type: MULTIPOLYGON
## Dimension:     XY
## Bounding box:  xmin: -180 ymin: -89.9 xmax: 180 ymax: 83.64513
## Geodetic CRS:  WGS 84
## # A tibble: 177 x 5
##    name_long        continent     coffee_production_2016 coffee_production_2017
##    <chr>            <chr>                          <int>                  <int>
##  1 Fiji             Oceania                           NA                     NA
##  2 Tanzania         Africa                            81                     66
##  3 Western Sahara   Africa                            NA                     NA
##  4 Canada           North America                     NA                     NA
##  5 United States    North America                     NA                     NA
##  6 Kazakhstan       Asia                              NA                     NA
##  7 Uzbekistan       Asia                              NA                     NA
##  8 Papua New Guinea Oceania                          114                     74
##  9 Indonesia        Asia                             742                    360
## 10 Argentina        South America                     NA                     NA
## # ... with 167 more rows, and 1 more variable: geom <MULTIPOLYGON [arc_degree]>
…
# group by and summarize the data
ridership=group_by(ridership, staCode)%>%
  summarise(riderships=sum(gateInComingCnt+gateOutGoingCnt))

# print the final result
ridership

## # A tibble: 239 x 2
##    staCode riderships
##      <int>      <int>
##  1     900     438926
##  2     910      80125
##  3     920     131957
##  4     930     360184
##  5     940     157416
##  6     950     115831
##  7     960     620925
##  8     970     582197
##  9     980     704605
## 10     990     960433
## # ... with 229 more rows
…
