Chapter 5 Spatial Operations | Spatial Analysis with R
…
# glance at new data
subregion_info

## Simple feature collection with 22 features and 4 fields
## Geometry type: GEOMETRY
## Dimension:     XY
## Bounding box:  xmin: -180 ymin: -90 xmax: 180 ymax: 83.64513
## Geodetic CRS:  WGS 84
## # A tibble: 22 x 5
##    subregion          pop lifeExp num_cou                                   geom
##    <chr>            <dbl>   <dbl>   <int>                <GEOMETRY [arc_degree]>
##  1 Australia and~  2.80e7    81.9       2 MULTIPOLYGON (((124.2216 -32.95949, 1~
##  2 Western Europe  1.26e8    81.8       7 MULTIPOLYGON (((-52.93966 2.124858, -~
##  3 Northern Amer~  3.54e8    80.4       3 MULTIPOLYGON (((-169.5294 62.97693, -~
##  4 Northern Euro~  9.66e7    79.5      10 MULTIPOLYGON (((-17.79444 63.67875, -~
##  5 Southern Euro~  1.53e8    78.4      12 MULTIPOLYGON (((-8.898857 36.86881, -~
##  6 Eastern Asia    1.57e9    76.3       6 MULTIPOLYGON (((121.586 39.36085, 121~
##  7 Central Ameri~  1.70e8    74.7       8 POLYGON ((-93.87517 15.94016, -94.691~
##  8 Western Asia    2.52e8    74.5      18 MULTIPOLYGON (((28.80644 41.05496, 27~
##  9 Eastern Europe  2.93e8    74.5      10 MULTIPOLYGON (((-177.5779 71.26948, -~
## 10 Caribbean       4.06e7    73.8       7 MULTIPOLYGON (((-79.28149 22.3992, -7~
## # ... with 12 more rows
…
